{
	"type": "settings",
	"pageName": "Example Page",
	"title": " | Example Title",
	"keywords": "",
	"author": "",
	"navigation": [
	],
	"homePage": "\/index",
	"pageNotFound": "\/404",
	"maxUploadSize": 1048576000,
	"maxImageSize": 3840,
	"errorMessage": "Error",
	"maintenanceMessage": "",
	"resolutions": {
		"content": "900",
		"preview": "800"
	},
	"cache": true,
	"cacheLifetime": 86400,
	"name": "settings",
	"created": 1559068232,
	"changed": 1583321738,
	"hidden": false,
	"disabled": true
}